Status: FAILED
Time Taken: 86
Size: 0
Timestamp: Tue Nov 20 23:45:49 CST 2018
TestStep: Add

----------------- Messages ------------------------------
org.apache.xmlbeans.impl.values.XmlValueOutOfRangeException: string value 'No Authorization' is not a valid enumeration value for type of authType element in Credentials in namespace http://eviware.com/soapui/config

----------------- Properties ------------------------------
Endpoint: http://www.dneonline.com/calculator.asmx
Encoding: UTF-8

---------------- Request ---------------------------
<soapenv:Envelope xmlns:soapenv="http://schemas.xmlsoap.org/soap/envelope/" xmlns:tem="http://tempuri.org/">
   \r
   <soapenv:Header/>
   \r
   <soapenv:Body>
      \r
      <tem:Add>
         \r
         <tem:intA>5</tem:intA>
         \r
         <tem:intB>6</tem:intB>
         \r
      </tem:Add>
      \r
   </soapenv:Body>
   \r
</soapenv:Envelope>

---------------- Response --------------------------
- missing response / garbage collected -
